{
    "version": 2,
    "name": "countdown-footpark",
    "builds": [
      {
        "src": "package.json",
        "use": "@now/static-build",
        "config": { "distDir": "public" }
      }
    ]
  }